<?xml version="1.0" encoding="UTF-8" standalone="no"?>
<svg
   xmlns:dc="http://purl.org/dc/elements/1.1/"
   xmlns:cc="http://creativecommons.org/ns#"
   xmlns:rdf="http://www.w3.org/1999/02/22-rdf-syntax-ns#"
   xmlns:svg="http://www.w3.org/2000/svg"
   xmlns="http://www.w3.org/2000/svg"
   xmlns:xlink="http://www.w3.org/1999/xlink"
   xmlns:sodipodi="http://sodipodi.sourceforge.net/DTD/sodipodi-0.dtd"
   xmlns:inkscape="http://www.inkscape.org/namespaces/inkscape"
   version="1.1"
   viewBox="0.0 0.0 960.0 720.0"
   fill="none"
   stroke="none"
   stroke-linecap="square"
   stroke-miterlimit="10"
   id="svg189"
   sodipodi:docname="cheminement.svg"
   inkscape:version="0.92.4 (5da689c313, 2019-01-14)"
   inkscape:export-filename="C:\Users\user\Documents\DoAna - Website\static\img\cheminement.png"
   inkscape:export-xdpi="100"
   inkscape:export-ydpi="100">
  <metadata
     id="metadata195">
    <rdf:RDF>
      <cc:Work
         rdf:about="">
        <dc:format>image/svg+xml</dc:format>
        <dc:type
           rdf:resource="http://purl.org/dc/dcmitype/StillImage" />
      </cc:Work>
    </rdf:RDF>
  </metadata>
  <defs
     id="defs193">
    <linearGradient
       inkscape:collect="always"
       id="linearGradient1029">
      <stop
         style="stop-color:#999999;stop-opacity:1"
         offset="0"
         id="stop1025" />
      <stop
         style="stop-color:#d3d3d3;stop-opacity:0;"
         offset="1"
         id="stop1027" />
    </linearGradient>
    <linearGradient
       inkscape:collect="always"
       xlink:href="#linearGradient1029"
       id="linearGradient1031"
       x1="654"
       y1="368"
       x2="686.13538"
       y2="53.501221"
       gradientUnits="userSpaceOnUse" />
  </defs>
  <sodipodi:namedview
     pagecolor="#ffffff"
     bordercolor="#666666"
     borderopacity="1"
     objecttolerance="10"
     gridtolerance="10"
     guidetolerance="10"
     inkscape:pageopacity="0"
     inkscape:pageshadow="2"
     inkscape:window-width="1366"
     inkscape:window-height="705"
     id="namedview191"
     showgrid="false"
     inkscape:zoom="0.74444444"
     inkscape:cx="228.7153"
     inkscape:cy="360"
     inkscape:window-x="-8"
     inkscape:window-y="-8"
     inkscape:window-maximized="1"
     inkscape:current-layer="g187" />
  <clipPath
     id="p.0">
    <path
       d="m0 0l960.0 0l0 720.0l-960.0 0l0 -720.0z"
       clip-rule="nonzero"
       id="path2" />
  </clipPath>
  <path
     style="fill:url(#linearGradient1031);fill-opacity:1;stroke:none;stroke-width:1px;stroke-linecap:butt;stroke-linejoin:miter;stroke-opacity:1"
     d="M 14.977825,400.91518 487.23078,318.54596 c 3.48512,-0.94687 4.18293,-2.74076 4.36581,-7.28838 l -1.29463,-198.45255 c -0.0325,-8.71985 5.13092,-14.820921 15.20549,-14.964819 l 445.95775,0.04031 c 5.32902,-0.07168 8.37443,2.274579 7.92724,8.247759 l 0.14331,210.17609 c 4.3e-4,0.83616 -0.0144,1.60609 -0.16687,2.44735 l -14.23313,82.11461 z"
     id="path1002"
     inkscape:connector-curvature="0"
     sodipodi:nodetypes="ccccccccccc" />
  <g
     clip-path="url(#p.0)"
     id="g187">
    <path
       d="m0 0l960.0 0l0 720.0l-960.0 0z"
       id="path5"
       fill-rule="evenodd"
       fill-opacity="0.0"
       fill="#000000" />
    <path
       d="m5.6992655 115.52566l0 0c0 -4.6005783 3.7295036 -8.330078 8.330079 -8.330078l191.59181 0c2.2092743 0 4.328064 0.87763214 5.890259 2.4398193c1.5621948 1.5621948 2.4398193 3.6809845 2.4398193 5.890259l0 195.40283c0 4.6005554 -3.7295074 8.330078 -8.330078 8.330078l-191.59181 0c-4.6005754 0 -8.330079 -3.7295227 -8.330079 -8.330078z"
       id="path7"
       style="stroke:none"
       fill-rule="evenodd"
       fill="#c9dd72" />
    <path
       d="m252.56772 115.52566l0 0c0 -4.6005783 3.7294922 -8.330078 8.330078 -8.330078l191.59183 0c2.209259 0 4.328064 0.87763214 5.8902283 2.4398193c1.5621948 1.5621948 2.4398499 3.6809845 2.4398499 5.890259l0 195.40283c0 4.6005554 -3.7295227 8.330078 -8.330078 8.330078l-191.59183 0c-4.600586 0 -8.330078 -3.7295227 -8.330078 -8.330078z"
       id="path9"
       style="stroke:none"
       fill-rule="evenodd"
       fill="#c9dd72" />
    <path
       d="m499.4362 114.1897l0 0c0 -4.6005707 3.7294922 -8.330078 8.330078 -8.330078l191.59183 0c2.2092285 0 4.328064 0.87763214 5.890259 2.439827c1.5621338 1.5621872 2.4398193 3.6809769 2.4398193 5.890251l0 195.40283c0 4.600586 -3.7295532 8.330078 -8.330078 8.330078l-191.59183 0c-4.600586 0 -8.330078 -3.7294922 -8.330078 -8.330078z"
       id="path11"
       style="stroke:none"
       fill-rule="evenodd"
       fill="#c9dd72" />
    <path
       d="m746.3046 114.1897l0 0c0 -4.6005707 3.7294922 -8.330078 8.330078 -8.330078l191.5918 0c2.2092896 0 4.328064 0.87763214 5.890259 2.439827c1.5621948 1.5621872 2.4398193 3.6809769 2.4398193 5.890251l0 195.40283c0 4.600586 -3.7294922 8.330078 -8.330078 8.330078l-191.5918 0c-4.600586 0 -8.330078 -3.7294922 -8.330078 -8.330078z"
       id="path13"
       style="stroke:none"
       fill-rule="evenodd"
       fill="#c9dd72" />
    <path
       d="m746.3046 105.85962l208.25195 0l0 212.06299l-208.25195 0z"
       id="path15"
       fill-rule="evenodd"
       fill-opacity="0.0"
       fill="#000000" />
    <path
       d="m499.4362 105.85962l208.25198 0l0 212.06299l-208.25198 0z"
       id="path37"
       fill-rule="evenodd"
       fill-opacity="0.0"
       fill="#000000" />
    <path
       d="m252.56772 107.19558l208.25198 0l0 212.06299l-208.25198 0z"
       id="path61"
       fill-rule="evenodd"
       fill-opacity="0.0"
       fill="#000000" />
    <path
       d="m5.6992655 107.19558l208.25197 0l0 212.06299l-208.25197 0z"
       id="path75"
       fill-rule="evenodd"
       fill-opacity="0.0"
       fill="#000000" />
    <path
       d="m-0.17191601 33.2231l466.51968 0l0 58.740158l-466.51968 0z"
       id="path91"
       fill-rule="evenodd"
       fill-opacity="0.0"
       fill="#000000" />
    <path
       d="m493.0486 33.2231l466.51968 0l0 58.740158l-466.51968 0z"
       id="path97"
       fill-rule="evenodd"
       fill-opacity="0.0"
       fill="#000000" />
    <path
       d="m5.6981626 411.37585l0 0c0 -5.524597 4.478563 -10.003143 10.003149 -10.003143l927.9937 0c2.6530151 0 5.1973267 1.053894 7.073303 2.92984c1.8759766 1.875946 2.9298706 4.420288 2.9298706 7.073303l0 230.07245c0 5.524597 -4.4785767 10.003113 -10.003174 10.003113l-927.9937 0c-5.5245867 0 -10.003149 -4.4785156 -10.003149 -10.003113z"
       id="path103"
       fill-rule="evenodd"
       fill-opacity="0.0"
       fill="#000000" />
    <path
       d="m5.6981626 411.37585l0 0c0 -5.524597 4.478563 -10.003143 10.003149 -10.003143l927.9937 0c2.6530151 0 5.1973267 1.053894 7.073303 2.92984c1.8759766 1.875946 2.9298706 4.420288 2.9298706 7.073303l0 230.07245c0 5.524597 -4.4785767 10.003113 -10.003174 10.003113l-927.9937 0c-5.5245867 0 -10.003149 -4.4785156 -10.003149 -10.003113z"
       id="path105"
       style="fill:none"
       stroke-linejoin="round"
       stroke-linecap="butt"
       stroke-width="1.0"
       stroke="#434343"
       fill-rule="evenodd" />
    <path
       d="m306.8924 427.94067l0 0c0 -5.378479 4.3601074 -9.738586 9.738556 -9.738586l389.84567 0c2.5828857 0 5.0598755 1.0260315 6.8862305 2.8523865c1.826355 1.8263245 2.852356 4.3033752 2.852356 6.8862l0 183.45197c0 5.378479 -4.3601074 9.738586 -9.738586 9.738586l-389.84567 0c-5.3784485 0 -9.738556 -4.3601074 -9.738556 -9.738586z"
       id="path107"
       style="stroke:none"
       fill-rule="evenodd"
       fill="#c9dd72" />
    <path
       d="m13.393972 499.17584l101.32283 0l0 37.700806l-101.32283 0z"
       id="path109"
       fill-rule="evenodd"
       fill-opacity="0.0"
       fill="#000000" />
    <path
       d="m184.13666 499.17584l87.24408 0l0 37.700806l-87.24408 0z"
       id="path113"
       fill-rule="evenodd"
       fill-opacity="0.0"
       fill="#000000" />
    <path
       d="m340.7926 496.3573l138.04724 0l0 43.338562l-138.04724 0z"
       id="path117"
       fill-rule="evenodd"
       fill-opacity="0.0"
       fill="#000000" />
    <path
       d="m522.41205 418.20078l113.07086 0l0 43.338593l-113.07086 0z"
       id="path121"
       fill-rule="evenodd"
       fill-opacity="0.0"
       fill="#000000" />
    <path
       d="m522.4121 572.35693l113.07086 0l0 43.338623l-113.07086 0z"
       id="path125"
       fill-rule="evenodd"
       fill-opacity="0.0"
       fill="#000000" />
    <path
       d="m768.99744 500.81628l162.86615 0l0 37.700806l-162.86615 0z"
       id="path129"
       fill-rule="evenodd"
       fill-opacity="0.0"
       fill="#000000" />
    <path
       d="m299.04742 615.69586l138.04724 0l0 30.330688l-138.04724 0z"
       id="path133"
       fill-rule="evenodd"
       fill-opacity="0.0"
       fill="#000000" />
    <path
       d="m0 647.77954l138.04724 0l0 37.700745l-138.04724 0z"
       id="path137"
       fill-rule="evenodd"
       fill-opacity="0.0"
       fill="#000000" />
    <path
       d="m114.716805 518.02625l69.41732 0"
       id="path141"
       fill-rule="evenodd"
       fill-opacity="0.0"
       fill="#000000" />
    <path
       d="m114.71681 518.02625l57.417313 0"
       id="path143"
       stroke-linejoin="round"
       stroke-linecap="butt"
       stroke-width="2.0"
       stroke="#000000"
       fill-rule="evenodd" />
    <path
       d="m172.13412 521.3297l9.076202 -3.3034668l-9.076202 -3.3034668z"
       id="path145"
       stroke-linecap="butt"
       stroke-width="2.0"
       stroke="#000000"
       fill-rule="evenodd"
       fill="#000000" />
    <path
       d="m271.38074 518.02625l69.41733 0"
       id="path147"
       fill-rule="evenodd"
       fill-opacity="0.0"
       fill="#000000" />
    <path
       d="m271.38074 518.02625l57.417328 0"
       id="path149"
       stroke-linejoin="round"
       stroke-linecap="butt"
       stroke-width="2.0"
       stroke="#000000"
       fill-rule="evenodd" />
    <path
       d="m328.79807 521.3297l9.076202 -3.3034668l-9.076202 -3.3034668z"
       id="path151"
       stroke-linecap="butt"
       stroke-width="2.0"
       stroke="#000000"
       fill-rule="evenodd"
       fill="#000000" />
    <path
       d="m409.81622 496.3573c0 -28.236206 56.299194 -56.472443 112.59839 -56.472443"
       id="path153"
       fill-rule="evenodd"
       fill-opacity="0.0"
       fill="#000000" />
    <path
       d="m 409.81622,496.35733 c 3,-21.1181 12.69115,-32.49075 32.57527,-44.50426 23.52901,-13.0242 46.53889,-11.68689 68.03047,-11.54931"
       id="path155"
       inkscape:connector-curvature="0"
       style="fill-rule:evenodd;stroke:#000000;stroke-width:2;stroke-linecap:butt;stroke-linejoin:round"
       sodipodi:nodetypes="ccc" />
    <path
       d="m510.53726 443.60516l8.955353 -3.618225l-9.185944 -2.9846802z"
       id="path157"
       stroke-linecap="butt"
       stroke-width="2.0"
       stroke="#000000"
       fill-rule="evenodd"
       fill="#000000" />
    <path
       d="m635.4829 439.8701c29.710022 0 59.41211 38.53543 59.419983 77.07083c0.007873535 38.53546 -29.678467 77.07092 -59.356934 77.07092"
       id="path159"
       fill-rule="evenodd"
       fill-opacity="0.0"
       fill="#000000" />
    <path
       d="m635.4829 439.8701c29.710022 0 59.41211 38.53543 59.419983 77.07083c0.00390625 19.267761 -7.4157104 38.53546 -18.546082 52.986267c-5.5652466 7.225403 -12.058105 13.246521 -19.014648 17.461365c-1.7390747 1.0537109 -3.5072021 1.9945068 -5.297058 2.8129883c-0.89489746 0.40930176 -1.795227 0.78790283 -2.7001343 1.1348877c-0.45239258 0.17340088 -0.90600586 0.33892822 -1.3605347 0.49639893l-0.6022949 0.20300293"
       id="path161"
       stroke-linejoin="round"
       stroke-linecap="butt"
       stroke-width="2.0"
       stroke="#000000"
       fill-rule="evenodd" />
    <path
       d="m646.83813 588.77747l-8.408325 4.7528687l9.496277 1.763855z"
       id="path163"
       stroke-linecap="butt"
       stroke-width="2.0"
       stroke="#000000"
       fill-rule="evenodd"
       fill="#000000" />
    <path
       d="m522.4121 594.02625c-56.299225 0 -112.59845 -27.165344 -112.59845 -54.33069"
       id="path165"
       fill-rule="evenodd"
       fill-opacity="0.0"
       fill="#000000" />
    <path
       d="m 522.4121,594.02625 c -28.1496,0 -62.89699,-2.80677 -79.19922,-11.91287 -16.30223,-9.1061 -23.25326,-19.34381 -29.86188,-30.40958 -0.0605,-0.10382 -0.12018,-0.20764 -0.17914,-0.31152 l -0.085,-0.15174"
       id="path167"
       inkscape:connector-curvature="0"
       style="fill-rule:evenodd;stroke:#000000;stroke-width:2;stroke-linecap:butt;stroke-linejoin:round"
       sodipodi:nodetypes="csccc" />
    <path
       d="m416.26505 550.3394l-5.653839 -7.8309326l-0.70254517 9.633118z"
       id="path169"
       stroke-linecap="butt"
       stroke-width="2.0"
       stroke="#000000"
       fill-rule="evenodd"
       fill="#000000" />
    <path
       d="m716.2152 519.6667l52.787415 0"
       id="path171"
       fill-rule="evenodd"
       fill-opacity="0.0"
       fill="#000000" />
    <path
       d="m716.2152 519.6667l40.787415 0"
       id="path173"
       stroke-linejoin="round"
       stroke-linecap="butt"
       stroke-width="2.0"
       stroke="#000000"
       fill-rule="evenodd" />
    <path
       d="m757.0026 522.97015l9.076172 -3.3034668l-9.076172 -3.3034668z"
       id="path175"
       stroke-linecap="butt"
       stroke-width="2.0"
       stroke="#000000"
       fill-rule="evenodd"
       fill="#000000" />
    <path
       d="m608.6273 627.4068l345.07086 0l0 30.33075l-345.07086 0z"
       id="path177"
       fill-rule="evenodd"
       fill-opacity="0.0"
       fill="#000000" />
    <path
       d="m460.82022 202.4672l19.763763 0l0 -9.425201l18.850403 18.850403l-18.850403 18.850388l0 -9.425201l-19.763763 0z"
       id="path181"
       fill-rule="evenodd"
       fill="#999999" />
    <path
       d="m213.94882 202.4672l19.763779 0l0 -9.425201l18.850388 18.850403l-18.850388 18.850388l0 -9.425201l-19.763779 0z"
       id="path183"
       fill-rule="evenodd"
       fill="#999999" />
    <path
       d="m707.6916 203.80315l19.763794 0l0 -9.425186l18.850403 18.850388l-18.850403 18.850388l0 -9.425186l-19.763794 0z"
       id="path185"
       fill-rule="evenodd"
       fill="#999999" />
    <text
       xml:space="preserve"
       style="font-style:normal;font-weight:normal;font-size:16px;line-height:1.25;font-family:sans-serif;letter-spacing:0px;word-spacing:0px;fill:#000000;fill-opacity:1;stroke:none"
       x="684.04059"
       y="644.83069"
       id="text1035"><tspan
         sodipodi:role="line"
         id="tspan1033"
         x="684.04059"
         y="644.83069"
         style="font-style:normal;font-variant:normal;font-weight:normal;font-stretch:normal;font-size:13.33333302px;font-family:Raleway;-inkscape-font-specification:Raleway">Inspiré de Hadley Wickham, r4ds.had.co.nz</tspan></text>
    <text
       xml:space="preserve"
       style="font-style:normal;font-weight:normal;font-size:16px;line-height:1.25;font-family:sans-serif;letter-spacing:0px;word-spacing:0px;fill:#000000;fill-opacity:1;stroke:none"
       x="306.60693"
       y="639.30322"
       id="text1035-7"><tspan
         sodipodi:role="line"
         id="tspan1033-7"
         x="306.60693"
         y="639.30322"
         style="font-style:normal;font-variant:normal;font-weight:normal;font-stretch:normal;font-size:18.66666603px;font-family:Raleway;-inkscape-font-specification:Raleway">Comprendre</tspan></text>
    <text
       xml:space="preserve"
       style="font-style:normal;font-weight:normal;font-size:16px;line-height:1.25;font-family:sans-serif;letter-spacing:0px;word-spacing:0px;fill:#000000;fill-opacity:1;stroke:none"
       x="4.2817383"
       y="673.82532"
       id="text1035-7-9"><tspan
         sodipodi:role="line"
         id="tspan1033-7-0"
         x="4.2817383"
         y="673.82532"
         style="font-style:normal;font-variant:normal;font-weight:normal;font-stretch:normal;font-size:18.66666603px;font-family:Raleway;-inkscape-font-specification:Raleway">Programmer</tspan></text>
    <text
       xml:space="preserve"
       style="font-style:normal;font-weight:normal;font-size:16px;line-height:1.25;font-family:sans-serif;letter-spacing:0px;word-spacing:0px;fill:#000000;fill-opacity:1;stroke:none"
       x="234.49477"
       y="59.545349"
       id="text1035-7-9-1"><tspan
         sodipodi:role="line"
         id="tspan1033-7-0-3"
         x="234.49477"
         y="59.545349"
         style="font-style:normal;font-variant:normal;font-weight:normal;font-stretch:normal;font-size:21.33333397px;font-family:Raleway;-inkscape-font-specification:Raleway;text-align:center;text-anchor:middle">Réfléchir et s'organiser</tspan><tspan
         sodipodi:role="line"
         x="234.49477"
         y="86.212013"
         style="font-style:normal;font-variant:normal;font-weight:normal;font-stretch:normal;font-size:21.33333397px;font-family:Raleway;-inkscape-font-specification:Raleway;text-align:center;text-anchor:middle"
         id="tspan1091">en amont de la saisie des données</tspan></text>
    <text
       xml:space="preserve"
       style="font-style:normal;font-weight:normal;font-size:16px;line-height:1.25;font-family:sans-serif;letter-spacing:0px;word-spacing:0px;fill:#000000;fill-opacity:1;stroke:none"
       x="720.96082"
       y="59.453339"
       id="text1035-7-9-1-6"><tspan
         sodipodi:role="line"
         x="720.96082"
         y="59.453339"
         style="font-style:normal;font-variant:normal;font-weight:normal;font-stretch:normal;font-size:21.33333397px;font-family:Raleway;-inkscape-font-specification:Raleway;text-align:center;text-anchor:middle"
         id="tspan1091-2">Programmer et comprendre</tspan><tspan
         sodipodi:role="line"
         x="720.96082"
         y="86.120003"
         style="font-style:normal;font-variant:normal;font-weight:normal;font-stretch:normal;font-size:21.33333397px;font-family:Raleway;-inkscape-font-specification:Raleway;text-align:center;text-anchor:middle"
         id="tspan1116">pendant et après la saisie des données</tspan></text>
    <text
       xml:space="preserve"
       style="font-style:normal;font-weight:normal;font-size:16px;line-height:1.25;font-family:sans-serif;letter-spacing:0px;word-spacing:0px;fill:#000000;fill-opacity:1;stroke:none"
       x="22.928085"
       y="525.54535"
       id="text1035-7-9-3"><tspan
         sodipodi:role="line"
         id="tspan1033-7-0-37"
         x="22.928085"
         y="525.54535"
         style="font-style:normal;font-variant:normal;font-weight:bold;font-stretch:normal;font-size:18.66666603px;font-family:Raleway;-inkscape-font-specification:Raleway">Importer</tspan></text>
    <text
       xml:space="preserve"
       style="font-style:normal;font-weight:normal;font-size:16px;line-height:1.25;font-family:sans-serif;letter-spacing:0px;word-spacing:0px;fill:#000000;fill-opacity:1;stroke:none"
       x="193.41675"
       y="524.34021"
       id="text1035-7-9-3-6"><tspan
         sodipodi:role="line"
         id="tspan1033-7-0-37-5"
         x="193.41675"
         y="524.34021"
         style="font-style:normal;font-variant:normal;font-weight:bold;font-stretch:normal;font-size:18.66666603px;font-family:Raleway;-inkscape-font-specification:Raleway">Ranger</tspan></text>
    <text
       xml:space="preserve"
       style="font-style:normal;font-weight:normal;font-size:16px;line-height:1.25;font-family:sans-serif;letter-spacing:0px;word-spacing:0px;fill:#000000;fill-opacity:1;stroke:none"
       x="350.22644"
       y="522.63867"
       id="text1035-7-9-3-0"><tspan
         sodipodi:role="line"
         id="tspan1033-7-0-37-7"
         x="350.22644"
         y="522.63867"
         style="font-style:normal;font-variant:normal;font-weight:bold;font-stretch:normal;font-size:18.66666603px;font-family:Raleway;-inkscape-font-specification:Raleway">Transformer</tspan></text>
    <text
       xml:space="preserve"
       style="font-style:normal;font-weight:normal;font-size:16px;line-height:1.25;font-family:sans-serif;letter-spacing:0px;word-spacing:0px;fill:#000000;fill-opacity:1;stroke:none"
       x="531.71155"
       y="444.20584"
       id="text1035-7-9-3-60"><tspan
         sodipodi:role="line"
         id="tspan1033-7-0-37-79"
         x="531.71155"
         y="444.20584"
         style="font-style:normal;font-variant:normal;font-weight:bold;font-stretch:normal;font-size:18.66666603px;font-family:Raleway;-inkscape-font-specification:Raleway">Visualiser</tspan></text>
    <text
       xml:space="preserve"
       style="font-style:normal;font-weight:normal;font-size:16px;line-height:1.25;font-family:sans-serif;letter-spacing:0px;word-spacing:0px;fill:#000000;fill-opacity:1;stroke:none"
       x="532.22644"
       y="599.63867"
       id="text1035-7-9-3-2"><tspan
         sodipodi:role="line"
         id="tspan1033-7-0-37-6"
         x="532.22644"
         y="599.63867"
         style="font-style:normal;font-variant:normal;font-weight:bold;font-stretch:normal;font-size:18.66666603px;font-family:Raleway;-inkscape-font-specification:Raleway">Modéliser</tspan></text>
    <text
       xml:space="preserve"
       style="font-style:normal;font-weight:normal;font-size:16px;line-height:1.25;font-family:sans-serif;letter-spacing:0px;word-spacing:0px;fill:#000000;fill-opacity:1;stroke:none"
       x="783.33466"
       y="526.17975"
       id="text1035-7-9-3-4"><tspan
         sodipodi:role="line"
         id="tspan1033-7-0-37-2"
         x="783.33466"
         y="526.17975"
         style="font-style:normal;font-variant:normal;font-weight:bold;font-stretch:normal;font-size:18.66666603px;font-family:Raleway;-inkscape-font-specification:Raleway">Communiquer</tspan></text>
    <text
       xml:space="preserve"
       style="font-style:normal;font-weight:normal;font-size:18.66666667px;line-height:1.25;font-family:Raleway;letter-spacing:0px;word-spacing:0px;fill:#000000;fill-opacity:1;stroke:none;-inkscape-font-specification:'Raleway, Normal';font-stretch:normal;font-variant:normal;text-anchor:start;text-align:start;writing-mode:lr;font-variant-ligatures:normal;font-variant-caps:normal;font-variant-numeric:normal;font-feature-settings:normal;"
       x="16.22644"
       y="136.63867"
       id="text1035-7-9-3-05"><tspan
         sodipodi:role="line"
         id="tspan1212" /></text>
    <flowRoot
       xml:space="preserve"
       id="flowRoot1214"
       style="font-style:normal;font-variant:normal;font-weight:normal;font-stretch:normal;font-size:18.66666603px;line-height:1.25;font-family:Raleway;-inkscape-font-specification:'Raleway, Normal';font-variant-ligatures:normal;font-variant-caps:normal;font-variant-numeric:normal;font-feature-settings:normal;text-align:start;letter-spacing:0px;word-spacing:0px;writing-mode:lr-tb;text-anchor:start;fill:#000000;fill-opacity:1;stroke:none"
       transform="translate(10,1)"><flowRegion
         id="flowRegion1216"
         style="font-style:normal;font-variant:normal;font-weight:normal;font-stretch:normal;font-size:18.66666603px;font-family:Raleway;-inkscape-font-specification:'Raleway, Normal';font-variant-ligatures:normal;font-variant-caps:normal;font-variant-numeric:normal;font-feature-settings:normal;text-align:start;writing-mode:lr-tb;text-anchor:start"><rect
           id="rect1218"
           width="197.30074"
           height="193.47433"
           x="5.6992655"
           y="115.52566"
           style="font-style:normal;font-variant:normal;font-weight:normal;font-stretch:normal;font-size:18.66666603px;font-family:Raleway;-inkscape-font-specification:'Raleway, Normal';font-variant-ligatures:normal;font-variant-caps:normal;font-variant-numeric:normal;font-feature-settings:normal;text-align:start;writing-mode:lr-tb;text-anchor:start" /></flowRegion><flowPara
         id="flowPara1242"><flowSpan
   style="font-weight:bold"
   id="flowSpan1250">Protocole</flowSpan> <flowSpan
   style="font-weight:bold"
   id="flowSpan1248">expérimental</flowSpan></flowPara><flowPara
         id="flowPara1244" /><flowPara
         id="flowPara1246">- Comment répondre à sa question scientifique ?</flowPara></flowRoot>    <flowRoot
       xml:space="preserve"
       id="flowRoot1214-0"
       style="font-style:normal;font-variant:normal;font-weight:normal;font-stretch:normal;font-size:18.66666603px;line-height:1.25;font-family:Raleway;-inkscape-font-specification:'Raleway, Normal';font-variant-ligatures:normal;font-variant-caps:normal;font-variant-numeric:normal;font-feature-settings:normal;text-align:start;letter-spacing:0px;word-spacing:0px;writing-mode:lr-tb;text-anchor:start;fill:#000000;fill-opacity:1;stroke:none"
       transform="translate(265.54726,3.69657)"><flowRegion
         id="flowRegion1216-1"
         style="font-style:normal;font-variant:normal;font-weight:normal;font-stretch:normal;font-size:18.66666603px;font-family:Raleway;-inkscape-font-specification:'Raleway, Normal';font-variant-ligatures:normal;font-variant-caps:normal;font-variant-numeric:normal;font-feature-settings:normal;text-align:start;writing-mode:lr-tb;text-anchor:start"><rect
           id="rect1218-5"
           width="197.30074"
           height="193.47433"
           x="5.6992655"
           y="115.52566"
           style="font-style:normal;font-variant:normal;font-weight:normal;font-stretch:normal;font-size:18.66666603px;font-family:Raleway;-inkscape-font-specification:'Raleway, Normal';font-variant-ligatures:normal;font-variant-caps:normal;font-variant-numeric:normal;font-feature-settings:normal;text-align:start;writing-mode:lr-tb;text-anchor:start" /></flowRegion><flowPara
         id="flowPara1288"
         style="font-weight:bold">Plan de gestion de données</flowPara><flowPara
         id="flowPara1290" /><flowPara
         id="flowPara1292">- Tableurs</flowPara><flowPara
         id="flowPara1294">- Bases de données</flowPara></flowRoot>    <flowRoot
       xml:space="preserve"
       id="flowRoot1214-4"
       style="font-style:normal;font-variant:normal;font-weight:normal;font-stretch:normal;font-size:18.66666603px;line-height:1.25;font-family:Raleway;-inkscape-font-specification:'Raleway, Normal';font-variant-ligatures:normal;font-variant-caps:normal;font-variant-numeric:normal;font-feature-settings:normal;text-align:start;letter-spacing:0px;word-spacing:0px;writing-mode:lr-tb;text-anchor:start;fill:#000000;fill-opacity:1;stroke:none"
       transform="translate(508.54726,2.69657)"><flowRegion
         id="flowRegion1216-0"
         style="font-style:normal;font-variant:normal;font-weight:normal;font-stretch:normal;font-size:18.66666603px;font-family:Raleway;-inkscape-font-specification:'Raleway, Normal';font-variant-ligatures:normal;font-variant-caps:normal;font-variant-numeric:normal;font-feature-settings:normal;text-align:start;writing-mode:lr-tb;text-anchor:start"><rect
           id="rect1218-4"
           width="197.30074"
           height="193.47433"
           x="5.6992655"
           y="115.52566"
           style="font-style:normal;font-variant:normal;font-weight:normal;font-stretch:normal;font-size:18.66666603px;font-family:Raleway;-inkscape-font-specification:'Raleway, Normal';font-variant-ligatures:normal;font-variant-caps:normal;font-variant-numeric:normal;font-feature-settings:normal;text-align:start;writing-mode:lr-tb;text-anchor:start" /></flowRegion><flowPara
         id="flowPara1316"
         style="font-weight:bold">Analyse de données</flowPara><flowPara
         id="flowPara1318" /><flowPara
         id="flowPara1320">- Visualisation des données</flowPara><flowPara
         id="flowPara1322">- Analyses multivariées</flowPara><flowPara
         id="flowPara1324"> - Modélisation statistique</flowPara></flowRoot>  </g>
  <flowRoot
     xml:space="preserve"
     id="flowRoot1214-1"
     style="font-style:normal;font-variant:normal;font-weight:normal;font-stretch:normal;font-size:18.66666603px;line-height:1.25;font-family:Raleway;-inkscape-font-specification:'Raleway, Normal';font-variant-ligatures:normal;font-variant-caps:normal;font-variant-numeric:normal;font-feature-settings:normal;text-align:start;letter-spacing:0px;word-spacing:0px;writing-mode:lr-tb;text-anchor:start;fill:#000000;fill-opacity:1;stroke:none"
     transform="translate(752.84577,1.7562701)"><flowRegion
       id="flowRegion1216-9"
       style="font-style:normal;font-variant:normal;font-weight:normal;font-stretch:normal;font-size:18.66666603px;font-family:Raleway;-inkscape-font-specification:'Raleway, Normal';font-variant-ligatures:normal;font-variant-caps:normal;font-variant-numeric:normal;font-feature-settings:normal;text-align:start;writing-mode:lr-tb;text-anchor:start"><rect
         id="rect1218-47"
         width="197.30074"
         height="193.47433"
         x="5.6992655"
         y="115.52566"
         style="font-style:normal;font-variant:normal;font-weight:normal;font-stretch:normal;font-size:18.66666603px;font-family:Raleway;-inkscape-font-specification:'Raleway, Normal';font-variant-ligatures:normal;font-variant-caps:normal;font-variant-numeric:normal;font-feature-settings:normal;text-align:start;writing-mode:lr-tb;text-anchor:start" /></flowRegion><flowPara
       id="flowPara1346"
       style="font-weight:bold">Communication des résultats</flowPara><flowPara
       id="flowPara1348" /><flowPara
       id="flowPara1350">- Graphiques</flowPara><flowPara
       id="flowPara1352">- Articles scientifiques</flowPara><flowPara
       id="flowPara1354">- Applications web</flowPara><flowPara
       id="flowPara1356">- Package R</flowPara></flowRoot></svg>
